[{
  "id": 8519,
  "collection": "Concept Art",
  "name": "Motorway Search"
}, {
  "id": 8855,
  "collection": "Concept Art",
  "name": "Funny Quick Scetch",
}, {
  "id": 8832,
  "collection": "Character",
  "name": "Punisher Borg",
}, {
  "id": 8816,
  "collection": "Concept Art",
  "name": "Racing",
}, {
  "id": 8744,
  "collection": "Fantasy",
  "name": "The Ork And Goblin Fight",
}, {
  "id": 6874,
  "collection": "Concept Art",
  "name": "Fly",
}, {
  "id": 7880,
  "collection": "Character",
  "name": "Sophia"
},{
  "id": 4431,
  "collection": "Digital Art",
  "name": "Alien"
}, {
  "id": 9303,
  "collection": "Fantasy",
  "name": "Watcher"
}, {
  "id": 9304,
  "collection": "Science Fiction",
  "name": "Newcrest"
}, {
  "id": 9305,
  "collection": "Science Fiction",
  "name": "Dormanthalas"
}, {
  "id": 9307,
  "collection": "Fantasy",
  "name": "Clouds And Mountains"
}, {
  "id": 3573,
  "collection": "Concept Art",
  "name": "Wall Of Whitebridge"
}, {
  "id": 5516,
  "collection": "Illustration",
  "name": "A Quiet Moment",
},  {
  "id": 6445,
  "collection": "Digital Art",
  "name": "Guardian Angel",
}, {
  "id": 8034,
  "collection": "Fantasy",
  "name": "The Prince",
}, {
  "id": 8210,
  "collection": "Illustration",
  "name": "Sir Darkness And His Rose",
}, {
  "id": 9435,
  "collection": "Illustration",
  "name": "Lillian In Gold",
}, {
  "id": 7854,
  "collection": "Illustration",
  "name": "Spring Music",
}, {
  "id": 9055,
  "collection": "Illustration",
  "name": "Afternoon Rest By The Water",
}, {
  "id": 9140,
  "collection": "Fantasy",
  "name": "Succubus And Skulls",
}, {
  "id": 8369,
  "collection": "Illustration",
  "name": "Requiem",
}, {
  "id": 7697,
  "collection": "Fantasy",
  "name": "Approaching Storm",
}, {
  "id": 1520,
  "collection": "Environment",
  "name": "Up",
}, {
  "id": 6736,
  "collection": "Digital Art",
  "name": "Raven",
}, {
  "id": 7318,
  "collection": "Environment",
  "name": "Return",
}, {
  "id": 7711,
  "collection": "Environment",
  "name": "Impossible",
}, {
  "id": 9313,
  "collection": "Digital Art",
  "name": "Hayla",
}, {
  "id": 5847,
  "collection": "Environment",
  "name": "Up 2",
}, {
  "id": 6686,
  "collection": "Illustration",
  "name": "The Storyteller",
}, {
  "id": 9426,
  "collection": "Fantasy",
  "name": "Portrait 03",
}, {
  "id": 8635,
  "collection": "Environment",
  "name": "Up 3",
}, {
  "id": 7424,
  "collection": "Fantasy",
  "name": "Dragon Witch",
}, {
  "id": 7883,
  "collection": "Fantasy",
  "name": "Alysse",
}, {
  "id": 6633,
  "collection": "Illustration",
  "name": "Lina",
}, {
  "id": 8267,
  "collection": "Fantasy",
  "name": "Holy Water",
}, {
  "id": 8474,
  "collection": "Fantasy",
  "name": "Female Samurai",
}, {
  "id": 904,
  "collection": "Digital Art",
  "name": "Character",
}, {
  "id": 6615,
  "collection": "Environment",
  "name": "Study Environment",
}, {
  "id": 8632,
  "collection": "Environment",
  "name": "West Link Gate Cyberpunk Views",
}, {
  "id": 8631,
  "collection": "Environment",
  "name": "Cyberpunk Views",
}, {
  "id": 7531,
  "collection": "Illustration",
  "name": "Island",
}, {
  "id": 8616,
  "collection": "Portrait",
  "name": "Portrait Study 1",
}, {
  "id": 8622,
  "collection": "Fantasy",
  "name": "Dragon Chase",
}, {
  "id": 8624,
  "collection": "Illustration",
  "name": "Viking Village Raid Courage",
}, {
  "id": 8617,
  "collection": "Illustration",
  "name": "Beastmasterq",
}, {
  "id": 4080,
  "collection": "Fantasy",
  "name": "Night Visitor",
}, {
  "id": 4081,
  "collection": "Fantasy",
  "name": "Mountan Wasps Nest",
}, {
  "id": 5515,
  "collection": "Concept Art",
  "name": "Giants Graveyard",
}, {
  "id": 6318,
  "collection": "Fantasy",
  "name": "Good As New",
}, {
  "id": 6319,
  "collection": "Fantasy",
  "name": "I Call Him Fluffy",
}, {
  "id": 4074,
  "collection": "Fantasy",
  "name": "Dragon Fight",
}, {
  "id": 4076,
  "collection": "Fantasy",
  "name": "Return To The Pirates Cove",
}, {
  "id": 4078,
  "collection": "Game Art",
  "name": "Terminator Diablo",
}, {
  "id": 5673,
  "collection": "Fantasy",
  "name": "Whisper You My Secrets",
}, {
  "id": 9211,
  "collection": "Horror",
  "name": "Torturer",
}, {
  "id": 9213,
  "collection": "Fantasy",
  "name": "Black Angel",
}, {
  "id": 9343,
  "collection": "Digital Art",
  "name": "Grumpy General",
}, {
  "id": 9344,
  "collection": "Digital Art",
  "name": "Hunting Dragon",
}, {
  "id": 2559,
  "collection": "Digital Art",
  "name": "Cyan",
}, {
  "id": 2577,
  "collection": "Character",
  "name": "Blush",
}]

